data/01.dat
data/02.dat
data/03.dat
data/04.dat
data/05.dat
data/06.dat
data/07.dat
data/08.dat
data/09.dat
data/10.dat
data/11.dat
data/12.dat
data/13.dat
data/14.dat
data/15.dat
data/16.dat
data/17.dat
data/18.dat
data/19.dat
data/20.dat
data/21.dat
data/22.dat
data/23.dat
data/24.dat
data/25.dat
data/26.dat
data/27.dat
data/28.dat
data/29.dat
data/30.dat
data/31.dat
data/32.dat
data/33.dat
data/34.dat
data/35.dat
